[
  "<script src=\"{{base_url}}skin/front/js/vendor/jquery.min.js\"><\/script>",
  "<script src=\"{{base_url}}skin/front/js/bootstrap.min.js\"><\/script>",
  "<script src=\"{{base_url}}skin/front/js/bootstrap-datepicker.js\"><\/script>",
  "<script src=\"{{base_url}}skin/front/js/bootstrap-datepicker.min.js\"><\/script>",
  "<script src=\"{{base_url}}assets/js/slick.min.js\"><\/script>",
  "<script src=\"{{base_url}}skin/front/js/parallaxTilt.min.js\"><\/script>",
  "<script src=\"{{base_url}}skin/front/js/app.js\"><\/script>"
]
